--------------------------------------------exportar base de datos 
pg_dump -U postgres -W -h 10.0.0.56 sinacom_dev > sinacom_dev.sql     -----> genera bacup


psql -h localhost -p 5434 -U postgres -f sinacom_dev.sql sinacom_dev     ------>  restauracion del backup 


usuario 		RMAMANI64	
psw 			123456    			



 Usuario: 01-0050-04
Contraseña: 201924



UPDATE USUARIO SET CONTRASENA =  'E10ADC3949BA59ABBE56E057F20F883E'


------------------------------------------------------------------------------------
postgres 9.4   eeeeeeee
post     10    aaaaaaaaaa
post     11    aaaaaaaaaa
post     12    oooooooo
post     14	   eeeeeeee




console.log(msg);

'%palabra%'

SELECT * FROM operador_tmp
where telefono LIKE '%5537675%'

SELECT * FROM operador_tmp
where fundempresa LIKE '%888%'

ALERT TABLE "operador_tmp" DROP COLUMN "departamentoOri"


[8:21, 19/10/2022] Jaime sinacom: pg_dump -U postgres -p 5433 -W -h host basename > basename.sql
[8:21, 19/10/2022] Jaime sinacom: psql -U postgres -W -h host -p 5433 sinacom < db_sinacom.sql



cd C:\Program Files\PostgreSQL\11\bin

psql -U postgres

create database sinacom2;



pg_dump -U postgres -p 5433 -W -h localhost sinacom2 > sinacom2

psql -U postgres -W -h localhost -p 5433 sinacom2 < sinacom2.sql


psql -h localhost -p 5433 -U postgres -f sinacom2 sinacom2

pg_restore -h localhost -d sinacom2 -U postgres -v c:\sinacom2


------------------------------------------------------------------------



ENTEL 
PIN  1234
0GVK48



generar provincias 









